{
  "name": "sport",
  "plural": "sports",
  "base": "PersistedModel",
  "idInjection": true,
  "options": {
    "validateUpsert": true
  },
  "properties": {
    "basketball": {
      "type": "string",
      "required": true
    },
    "badminton": {
      "type": "string",
      "required": true
    }
  },
  "validations": [],
  "relations": {},
  "acls": [],
  "methods": {}
}
